; Engine configuration file.
; It's best edited using the editor UI and not directly,
; since the parameters that go here are not all obvious.
;
; Format:
;   [section] ; section goes between []
;   param=value ; assign values to parameters

config_version=4

_global_script_classes=[ {
"base": "AdventureInteractable",
"class": "AdventureDialogInteractable",
"language": "GDScript",
"path": "res://harmonic-godot/adventure/AdventureDialogInteractable.gd"
}, {
"base": "CollisionObject2D",
"class": "AdventureInteractable",
"language": "GDScript",
"path": "res://harmonic-godot/adventure/AdventureInteractable.gd"
}, {
"base": "KinematicBody2D",
"class": "AdventurePlayer",
"language": "GDScript",
"path": "res://harmonic-godot/adventure/AdventurePlayer.gd"
}, {
"base": "Area2D",
"class": "AdventureZone",
"language": "GDScript",
"path": "res://harmonic-godot/adventure/AdventureZone.gd"
}, {
"base": "Resource",
"class": "AdventureZoneProperties",
"language": "GDScript",
"path": "res://harmonic-godot/adventure/AdventureZoneProperties.gd"
}, {
"base": "Reference",
"class": "ArrayUtils",
"language": "GDScript",
"path": "res://harmonic-godot/utils/ArrayUtils.gd"
}, {
"base": "Reference",
"class": "AudioUtils",
"language": "GDScript",
"path": "res://harmonic-godot/utils/AudioUtils.gd"
}, {
"base": "Reference",
"class": "DictionaryUtils",
"language": "GDScript",
"path": "res://harmonic-godot/utils/DictionaryUtils.gd"
}, {
"base": "Reference",
"class": "Direction4",
"language": "GDScript",
"path": "res://harmonic-godot/utils/Direction4.gd"
}, {
"base": "Reference",
"class": "Direction8",
"language": "GDScript",
"path": "res://harmonic-godot/utils/Direction8.gd"
}, {
"base": "Node2D",
"class": "FourWayOverlaps",
"language": "GDScript",
"path": "res://harmonic-godot/physics/FourWayOverlaps.gd"
}, {
"base": "Reference",
"class": "Node2DShaker",
"language": "GDScript",
"path": "res://harmonic-godot/node2d-shaker/Node2DShaker.gd"
}, {
"base": "Reference",
"class": "PhysicsUtils",
"language": "GDScript",
"path": "res://harmonic-godot/physics/PhysicsUtils.gd"
}, {
"base": "Reference",
"class": "SiteLock",
"language": "GDScript",
"path": "res://harmonic-godot/site-lock/SiteLock.gd"
}, {
"base": "Reference",
"class": "SiteLockUrls",
"language": "GDScript",
"path": "res://scripts/SiteLockUrls.gd"
}, {
"base": "Reference",
"class": "Vector2Utils",
"language": "GDScript",
"path": "res://harmonic-godot/utils/Vector2Utils.gd"
} ]
_global_script_class_icons={
"AdventureDialogInteractable": "",
"AdventureInteractable": "",
"AdventurePlayer": "",
"AdventureZone": "",
"AdventureZoneProperties": "",
"ArrayUtils": "",
"AudioUtils": "",
"DictionaryUtils": "",
"Direction4": "",
"Direction8": "",
"FourWayOverlaps": "",
"Node2DShaker": "",
"PhysicsUtils": "",
"SiteLock": "",
"SiteLockUrls": "",
"Vector2Utils": ""
}

[application]

config/name="Godot Template"
run/main_scene="res://scenes/intro-scene-cocoamoss.tscn"
boot_splash/image="res://harmonic-godot/sprites/black-pixel.png"
boot_splash/bg_color=Color( 0, 0, 0, 1 )
config/icon="res://publish/icons/icon.png"

[autoload]

AudioPlayer="*res://harmonic-godot/singletons/AudioPlayer.gd"
SaveData="*res://harmonic-godot/singletons/SaveData.gd"
ScreenTransitioner="*res://harmonic-godot/singletons/screen-transitioner/screen-transitioner.tscn"
Yields="*res://harmonic-godot/singletons/Yields.gd"
Globals="*res://singletons/Globals.gd"
Signals="*res://singletons/Signals.gd"
Sounds="*res://singletons/Sounds.gd"
Version="*res://singletons/Version.gd"
DialogBox="*res://singletons/dialog-box.tscn"
DialogPresets="*res://singletons/DialogPresets.gd"
InputManager="*res://harmonic-godot/singletons/InputManager.gd"
GlobalReferences="*res://harmonic-godot/singletons/GlobalReferences.gd"
ScreenCapture="*res://harmonic-godot/singletons/ScreenCapture.gd"
GlobalData="*res://harmonic-godot/singletons/GlobalData.gd"

[debug]

gdscript/completion/autocomplete_setters_and_getters=true

[display]

window/size/width=1000
window/size/resizable=false
window/size/test_width=1000
window/size/test_height=600
window/handheld/orientation="sensor_landscape"
window/stretch/mode="viewport"
window/stretch/aspect="keep"

[importer_defaults]

texture={
"compress/bptc_ldr": 0,
"compress/hdr_mode": 0,
"compress/lossy_quality": 0.7,
"compress/mode": 0,
"compress/normal_map": 0,
"detect_3d": false,
"flags/anisotropic": false,
"flags/filter": false,
"flags/mipmaps": false,
"flags/repeat": 0,
"flags/srgb": 2,
"process/HDR_as_SRGB": false,
"process/fix_alpha_border": true,
"process/invert_color": false,
"process/premult_alpha": false,
"size_limit": 0,
"stream": false,
"svg/scale": 1.0
}
wav={
"compress/mode": 0,
"edit/loop": false,
"edit/normalize": false,
"edit/trim": false,
"force/8_bit": false,
"force/max_rate": false,
"force/max_rate_hz": 44100,
"force/mono": false
}
ogg_vorbis={
"loop": false
}

[input]

ui_accept={
"deadzone": 0.5,
"events": [ Object(InputEventKey,"resource_local_to_scene":false,"resource_name":"","device":0,"alt":false,"shift":false,"control":false,"meta":false,"command":false,"pressed":false,"scancode":16777221,"physical_scancode":0,"unicode":0,"echo":false,"script":null)
, Object(InputEventKey,"resource_local_to_scene":false,"resource_name":"","device":0,"alt":false,"shift":false,"control":false,"meta":false,"command":false,"pressed":false,"scancode":16777222,"physical_scancode":0,"unicode":0,"echo":false,"script":null)
, Object(InputEventKey,"resource_local_to_scene":false,"resource_name":"","device":0,"alt":false,"shift":false,"control":false,"meta":false,"command":false,"pressed":false,"scancode":32,"physical_scancode":0,"unicode":0,"echo":false,"script":null)
, Object(InputEventJoypadButton,"resource_local_to_scene":false,"resource_name":"","device":0,"button_index":0,"pressure":0.0,"pressed":false,"script":null)
, Object(InputEventKey,"resource_local_to_scene":false,"resource_name":"","device":0,"alt":false,"shift":false,"control":false,"meta":false,"command":false,"pressed":false,"scancode":90,"physical_scancode":0,"unicode":0,"echo":false,"script":null)
 ]
}
ui_select={
"deadzone": 0.5,
"events": [  ]
}
ui_cancel={
"deadzone": 0.5,
"events": [ Object(InputEventKey,"resource_local_to_scene":false,"resource_name":"","device":0,"alt":false,"shift":false,"control":false,"meta":false,"command":false,"pressed":false,"scancode":16777217,"physical_scancode":0,"unicode":0,"echo":false,"script":null)
, Object(InputEventJoypadButton,"resource_local_to_scene":false,"resource_name":"","device":0,"button_index":1,"pressure":0.0,"pressed":false,"script":null)
, Object(InputEventKey,"resource_local_to_scene":false,"resource_name":"","device":0,"alt":false,"shift":false,"control":false,"meta":false,"command":false,"pressed":false,"scancode":88,"physical_scancode":0,"unicode":0,"echo":false,"script":null)
 ]
}
ui_focus_next={
"deadzone": 0.5,
"events": [  ]
}
ui_focus_prev={
"deadzone": 0.5,
"events": [  ]
}
ui_left={
"deadzone": 0.5,
"events": [ Object(InputEventKey,"resource_local_to_scene":false,"resource_name":"","device":0,"alt":false,"shift":false,"control":false,"meta":false,"command":false,"pressed":false,"scancode":16777231,"physical_scancode":0,"unicode":0,"echo":false,"script":null)
, Object(InputEventJoypadButton,"resource_local_to_scene":false,"resource_name":"","device":0,"button_index":14,"pressure":0.0,"pressed":false,"script":null)
, Object(InputEventJoypadMotion,"resource_local_to_scene":false,"resource_name":"","device":0,"axis":0,"axis_value":-1.0,"script":null)
 ]
}
ui_right={
"deadzone": 0.5,
"events": [ Object(InputEventKey,"resource_local_to_scene":false,"resource_name":"","device":0,"alt":false,"shift":false,"control":false,"meta":false,"command":false,"pressed":false,"scancode":16777233,"physical_scancode":0,"unicode":0,"echo":false,"script":null)
, Object(InputEventJoypadButton,"resource_local_to_scene":false,"resource_name":"","device":0,"button_index":15,"pressure":0.0,"pressed":false,"script":null)
, Object(InputEventJoypadMotion,"resource_local_to_scene":false,"resource_name":"","device":0,"axis":0,"axis_value":1.0,"script":null)
 ]
}
ui_up={
"deadzone": 0.5,
"events": [ Object(InputEventKey,"resource_local_to_scene":false,"resource_name":"","device":0,"alt":false,"shift":false,"control":false,"meta":false,"command":false,"pressed":false,"scancode":16777232,"physical_scancode":0,"unicode":0,"echo":false,"script":null)
, Object(InputEventJoypadButton,"resource_local_to_scene":false,"resource_name":"","device":0,"button_index":12,"pressure":0.0,"pressed":false,"script":null)
, Object(InputEventJoypadMotion,"resource_local_to_scene":false,"resource_name":"","device":0,"axis":1,"axis_value":-1.0,"script":null)
 ]
}
ui_down={
"deadzone": 0.5,
"events": [ Object(InputEventKey,"resource_local_to_scene":false,"resource_name":"","device":0,"alt":false,"shift":false,"control":false,"meta":false,"command":false,"pressed":false,"scancode":16777234,"physical_scancode":0,"unicode":0,"echo":false,"script":null)
, Object(InputEventJoypadButton,"resource_local_to_scene":false,"resource_name":"","device":0,"button_index":13,"pressure":0.0,"pressed":false,"script":null)
, Object(InputEventJoypadMotion,"resource_local_to_scene":false,"resource_name":"","device":0,"axis":1,"axis_value":1.0,"script":null)
 ]
}
ui_page_up={
"deadzone": 0.5,
"events": [  ]
}
ui_page_down={
"deadzone": 0.5,
"events": [  ]
}
ui_home={
"deadzone": 0.5,
"events": [  ]
}
ui_end={
"deadzone": 0.5,
"events": [  ]
}
left={
"deadzone": 0.5,
"events": [ Object(InputEventKey,"resource_local_to_scene":false,"resource_name":"","device":0,"alt":false,"shift":false,"control":false,"meta":false,"command":false,"pressed":false,"scancode":16777231,"physical_scancode":0,"unicode":0,"echo":false,"script":null)
, Object(InputEventJoypadButton,"resource_local_to_scene":false,"resource_name":"","device":0,"button_index":14,"pressure":0.0,"pressed":false,"script":null)
, Object(InputEventJoypadMotion,"resource_local_to_scene":false,"resource_name":"","device":0,"axis":0,"axis_value":-1.0,"script":null)
 ]
}
up={
"deadzone": 0.5,
"events": [ Object(InputEventKey,"resource_local_to_scene":false,"resource_name":"","device":0,"alt":false,"shift":false,"control":false,"meta":false,"command":false,"pressed":false,"scancode":16777232,"physical_scancode":0,"unicode":0,"echo":false,"script":null)
, Object(InputEventJoypadButton,"resource_local_to_scene":false,"resource_name":"","device":0,"button_index":12,"pressure":0.0,"pressed":false,"script":null)
, Object(InputEventJoypadMotion,"resource_local_to_scene":false,"resource_name":"","device":0,"axis":1,"axis_value":-1.0,"script":null)
 ]
}
down={
"deadzone": 0.5,
"events": [ Object(InputEventKey,"resource_local_to_scene":false,"resource_name":"","device":0,"alt":false,"shift":false,"control":false,"meta":false,"command":false,"pressed":false,"scancode":16777234,"physical_scancode":0,"unicode":0,"echo":false,"script":null)
, Object(InputEventJoypadButton,"resource_local_to_scene":false,"resource_name":"","device":0,"button_index":13,"pressure":0.0,"pressed":false,"script":null)
, Object(InputEventJoypadMotion,"resource_local_to_scene":false,"resource_name":"","device":0,"axis":1,"axis_value":1.0,"script":null)
 ]
}
right={
"deadzone": 0.5,
"events": [ Object(InputEventKey,"resource_local_to_scene":false,"resource_name":"","device":0,"alt":false,"shift":false,"control":false,"meta":false,"command":false,"pressed":false,"scancode":16777233,"physical_scancode":0,"unicode":0,"echo":false,"script":null)
, Object(InputEventJoypadButton,"resource_local_to_scene":false,"resource_name":"","device":0,"button_index":15,"pressure":0.0,"pressed":false,"script":null)
, Object(InputEventJoypadMotion,"resource_local_to_scene":false,"resource_name":"","device":0,"axis":0,"axis_value":1.0,"script":null)
 ]
}
dialog_box_speed={
"deadzone": 0.5,
"events": [ Object(InputEventKey,"resource_local_to_scene":false,"resource_name":"","device":0,"alt":false,"shift":false,"control":false,"meta":false,"command":false,"pressed":false,"scancode":16777237,"physical_scancode":0,"unicode":0,"echo":false,"script":null)
 ]
}
adventure_run={
"deadzone": 0.5,
"events": [ Object(InputEventKey,"resource_local_to_scene":false,"resource_name":"","device":0,"alt":false,"shift":false,"control":false,"meta":false,"command":false,"pressed":false,"scancode":16777237,"physical_scancode":0,"unicode":0,"echo":false,"script":null)
 ]
}

[rendering]

quality/driver/driver_name="GLES2"
quality/intended_usage/framebuffer_allocation=0
quality/intended_usage/framebuffer_allocation.mobile=0
2d/snapping/use_gpu_pixel_snap=true
vram_compression/import_etc=true
quality/shadows/filter_mode.mobile=1
2d/options/ninepatch_mode=0
environment/default_environment="res://default_env.tres"
quality/dynamic_fonts/use_oversampling=false
quality/2d/use_pixel_snap=true
